[2018-01-23 16:50:42] '003D000000yCGfEIAW'
[2018-01-23 16:50:58] '003D000002BdBstIAF'
[2018-01-23 16:50:59] '003D000000yCGfEIAW'
[2018-01-23 16:51:12] '003D000000yCGfEIAW'
[2018-01-23 16:51:13] '003D000001Y4611IAB'
[2018-01-23 16:51:24] '003D000000yCGfEIAW'
[2018-01-23 16:51:53] '003D000000yCGfEIAW'
[2018-01-23 16:52:22] '003D000002IE1BMIA1'
[2018-01-23 16:52:49] '003D000001LiyM6IAJ'
[2018-01-23 16:52:55] '003D000000vFID5IAO'
[2018-01-23 16:53:03] '003D000001Y4611IAB'
[2018-01-23 16:53:04] '003D000000wCSLYIA4'
[2018-01-23 16:53:11] '003D000001LiyM6IAJ'
[2018-01-23 16:53:47] '003D000002Dxd4kIAB'
[2018-01-23 16:53:50] '003D000001LiyM6IAJ'
[2018-01-23 16:53:57] '003D000001tQR6sIAG'
[2018-01-23 16:54:07] '003D000001LiyM6IAJ'
[2018-01-23 16:54:16] '003D000001LiyM6IAJ'
[2018-01-23 16:54:25] '003D000001Y4611IAB'
[2018-01-23 16:54:27] '003D000001JsB30IAF'
[2018-01-23 16:54:35] '003D000001LiyM6IAJ'
[2018-01-23 16:54:40] '003D000001Y4611IAB'
[2018-01-23 16:54:44] '003D000001LiyM6IAJ'
[2018-01-23 16:55:04] '003D000001JsB30IAF'
[2018-01-23 16:58:54] '003D0000027DRiaIAG'
[2018-01-23 16:59:00] '003D000001SvEBbIAN'
[2018-01-23 16:59:16] '003D000000yDw0WIAS'
[2018-01-23 16:59:20] '003D0000027DRiaIAG'
[2018-01-23 16:59:24] '003D000002INO8TIAX'
[2018-01-23 16:59:43] '003D000001SvEBbIAN'
[2018-01-23 17:00:28] '003D0000026ZlWZIA0'
[2018-01-23 17:01:01] '003D000002ECLuFIAX'
[2018-01-23 17:01:27] '003D000002ECLuFIAX'
[2018-01-23 17:01:30] '003D0000027ELDuIAO'
[2018-01-23 17:02:26] '003D000002J9W27IAF'
[2018-01-23 17:04:57] '003D000001zXeAFIA0'
[2018-01-23 17:05:08] '003D000001bjwISIAY'
[2018-01-23 17:05:20] '003D000001bjwISIAY'
[2018-01-23 17:05:31] '003D000001bjwISIAY'
[2018-01-23 17:05:42] '003D000001bjwISIAY'
[2018-01-23 17:08:23] '003D000002J9GH0IAN'
[2018-01-23 17:09:51] '003D00000260C9aIAE'
[2018-01-23 17:10:01] '003D000001felgEIAQ'
[2018-01-23 17:10:17] '53fc76ad-926d-b8ac-9d06-5a4e7e9f6c32'
[2018-01-23 17:12:08] '003D000001STYRJIA5'
[2018-01-23 17:12:17] '003D000001oDgweIAC'
[2018-01-23 17:12:25] '683122b3-12a3-6d9d-b197-5a340faaad62'
[2018-01-23 17:13:38] '683122b3-12a3-6d9d-b197-5a340faaad62'
[2018-01-23 17:13:45] 'b6fbd311-82ca-9abf-a048-5a1ef8c1435f'
[2018-01-23 17:15:23] '003D000001oDgweIAC'
[2018-01-23 17:15:46] '003D000002KKDrHIAX'
[2018-01-23 17:16:07] 'b3efd178-70f0-32e6-dff0-5a1ef98dd756'
[2018-01-23 17:17:18] '003D000001oBpTuIAK'
[2018-01-23 17:17:51] '003D000001oejJkIAI'
[2018-01-23 17:18:56] '003D000001ucVStIAM'
[2018-01-23 17:19:25] '003D0000025zXzwIAE'
[2018-01-23 17:20:18] '233a8f24-5e34-3275-10e1-5a4e6e4ed455'
[2018-01-23 17:20:30] '003D0000025zXzwIAE'
[2018-01-23 17:21:05] '003D000001tN7mkIAC'
[2018-01-23 17:21:10] '003D0000027DdehIAC'
[2018-01-23 17:21:13] '003D0000025zDZEIA2'
[2018-01-23 17:21:22] '003D0000022JpWXIA0'
[2018-01-23 17:21:23] '003D0000025zDZEIA2'
[2018-01-23 17:22:48] '003D0000023nnUvIAI'
[2018-01-23 17:22:48] '003D000001pCo4NIAS'
[2018-01-23 17:23:46] '003D000001gzBA6IAM'
[2018-01-23 17:23:54] '003D000001sHLpNIAW'
[2018-01-23 17:23:58] '003D000001gzBA6IAM'
[2018-01-23 17:24:09] '003D000001gzBA6IAM'
[2018-01-23 17:24:26] '003D0000013Bwb2IAC'
[2018-01-23 17:24:28] '003D000001pCo4NIAS'
[2018-01-23 17:24:28] '003D000001tgo5WIAQ'
[2018-01-23 17:24:37] '003D0000013Bwb2IAC'
[2018-01-23 17:26:24] '003D0000027Bpj4IAC'
[2018-01-23 17:28:08] '003D000001eZ22CIAS'
[2018-01-23 17:30:08] '003D000001j3rXlIAI'
[2018-01-23 17:34:39] '003D000001Sydd2IAB'
[2018-01-23 17:34:59] '003D0000029VtkdIAC'
[2018-01-23 17:35:21] '003D000001UvpGFIAZ'
[2018-01-23 17:35:46] '003D000002H4YOHIA3'
[2018-01-23 17:35:54] '003D00000243H1KIAU'
[2018-01-23 17:37:22] '003D000001NvVWDIA3'
[2018-01-23 17:37:32] '003D000000yD6y0IAC'
[2018-01-23 17:37:43] '003D000002EC4VuIAL'
[2018-01-23 17:38:13] '003D000001Sydd2IAB'
[2018-01-23 17:39:04] '8c9b68fb-fe37-7e45-1f8d-5a3c0ad6b991'
[2018-01-23 17:39:13] '003D000001Sydd2IAB'
[2018-01-23 17:39:28] '003D0000027DLL2IAO'
[2018-01-23 17:39:56] '003D000001sHLpNIAW'
[2018-01-23 17:40:18] '003D0000022KfdIIAS'
[2018-01-23 17:41:06] '003D0000021dZuPIAU'
[2018-01-23 17:42:21] '003D000001zbQRdIAM'
[2018-01-23 17:43:41] '003D000001EpZwkIAF'
[2018-01-23 17:44:17] '003D000002J9W27IAF'
[2018-01-23 17:46:31] '8c9b68fb-fe37-7e45-1f8d-5a3c0ad6b991'
[2018-01-23 17:47:21] '003D000001EpZwkIAF'
[2018-01-23 17:48:13] '003D000001thDH8IAM'
[2018-01-23 17:49:27] '9664bf28-79e9-e247-a9fb-5a456e1cf069'
[2018-01-23 17:49:35] '003D000001udzquIAA'
[2018-01-23 17:50:05] '003D000001blUclIAE'
[2018-01-23 17:50:13] '003D000002ECSKTIA5'
[2018-01-23 17:50:23] '003D000001j3mhUIAQ'
[2018-01-23 17:50:56] '003D000002ECRb0IAH'
[2018-01-23 17:51:11] '003D000002ECRb0IAH'
[2018-01-23 17:51:33] '003D000002ECRb0IAH'
[2018-01-23 17:52:00] '003D0000027DdehIAC'
[2018-01-23 17:52:17] '003D000001uDY4JIAW'
[2018-01-23 17:56:23] '2ff624c2-d216-9cc5-7c6b-5a675a70d4aa'
[2018-01-23 17:56:43] '2ff624c2-d216-9cc5-7c6b-5a675a70d4aa'
[2018-01-23 17:57:32] '003D000002KJu24IAD'
[2018-01-23 17:58:57] '003D000001sEzVnIAK'
[2018-01-23 17:59:46] '003D000002KJu24IAD'
[2018-01-23 18:00:28] '003D0000027ERHlIAO'
[2018-01-23 18:01:19] '003D000002IN4c7IAD'
[2018-01-23 18:02:32] '003D0000022JpWXIA0'
[2018-01-23 18:03:46] '003D000002INxFJIA1'
[2018-01-23 18:04:27] '003D00000209qP1IAI'
[2018-01-23 18:04:28] '003D000002INxFJIA1'
[2018-01-23 18:05:43] '003D000001navOVIAY'
[2018-01-23 18:06:03] '003D0000027Bpj4IAC'
[2018-01-23 18:06:54] '003D0000029WL8ZIAW'
[2018-01-23 18:07:27] '003D000001vHO5GIAW'
[2018-01-23 18:08:01] '003D0000029WPbUIAW'
[2018-01-23 18:08:29] '003D000002JACTZIA5'
[2018-01-23 18:08:31] '003D000001gzBA6IAM'
[2018-01-23 18:08:52] '003D000002FHyElIAL'
[2018-01-23 18:09:14] '003D000002JACTZIA5'
[2018-01-23 18:09:35] '003D000002KJiLeIAL'
[2018-01-23 18:10:01] '003D000002H5m7cIAB'
[2018-01-23 18:12:48] '003D000001Vx6hqIAB'
[2018-01-23 18:14:15] '003D000002KKDrHIAX'
[2018-01-23 18:14:31] '003D000002JA7cHIAT'
[2018-01-23 18:15:34] '003D000002H5m7cIAB'
[2018-01-23 18:16:07] '003D000001Kl2AzIAJ'
[2018-01-23 18:21:02] '003D000001a2tWhIAI'
[2018-01-23 18:22:14] '003D000000uf0GyIAI'
[2018-01-23 18:23:41] '003D000000uf0GyIAI'
[2018-01-23 18:23:47] '003D0000027CgOFIA0'
[2018-01-23 18:24:18] '003D000002FFaxVIAT'
[2018-01-23 18:24:37] '003D0000021eGBvIAM'
[2018-01-23 18:25:12] '003D000001tQZOVIA4'
[2018-01-23 18:26:25] '003D000001vHO5GIAW'
[2018-01-23 18:26:43] '003D000001vHO5GIAW'
[2018-01-23 18:26:44] '003D000001wnwxiIAA'
[2018-01-23 18:27:44] '003D000001wnwxiIAA'
[2018-01-23 18:28:16] '003D00000240n9gIAA'
[2018-01-23 18:28:30] '003D000001vHhJaIAK'
[2018-01-23 18:30:40] '003D00000240n9gIAA'
[2018-01-23 18:32:38] '003D000001x8B9pIAE'
[2018-01-23 18:32:41] '003D0000027EywtIAC'
[2018-01-23 18:33:18] '003D000001xeECYIA2'
[2018-01-23 18:35:05] '003D000002H4BAmIAN'
[2018-01-23 18:38:25] '003D000002KK680IAD'
[2018-01-23 18:38:39] '003D000002FHrWxIAL'
[2018-01-23 18:38:53] 'b3efd178-70f0-32e6-dff0-5a1ef98dd756'
[2018-01-23 18:39:07] 'b3efd178-70f0-32e6-dff0-5a1ef98dd756'
[2018-01-23 18:40:14] '003D000001nZUzlIAG'
[2018-01-23 18:41:07] '003D000002FFaxVIAT'
[2018-01-23 18:43:20] '003D000002INoI7IAL'
[2018-01-23 18:43:22] '003D000001ySiE1IAK'
[2018-01-23 18:43:51] '003D000002H5luqIAB'
[2018-01-23 18:44:44] '003D000002H5luqIAB'
[2018-01-23 18:46:44] '003D000001EpvbbIAB'
[2018-01-23 18:47:01] '003D000002BagEFIAZ'
[2018-01-23 18:47:22] '003D000001oBTm2IAG'
[2018-01-23 18:47:33] '003D000002FGyzyIAD'
[2018-01-23 18:49:09] '003D000001EpvbbIAB'
[2018-01-23 18:49:13] '003D000002BcWCtIAN'
[2018-01-23 18:50:02] '003D000001tQM7ZIAW'
[2018-01-23 18:50:34] '003D000001wo2PPIAY'
[2018-01-23 18:50:58] '003D000001tQnvyIAC'
[2018-01-23 18:54:08] '003D000000uf0GyIAI'
[2018-01-23 18:56:42] '003D000000uf0GyIAI'
[2018-01-23 18:57:15] '003D000001zZy87IAC'
[2018-01-23 18:57:16] '003D000001SVa1HIAT'
[2018-01-23 18:59:15] '003D000001yTtm8IAC'
[2018-01-23 18:59:26] '003D000002FGxrPIAT'
[2018-01-23 19:00:05] '81e4ffd7-e66b-c281-83f4-5a676a2607da'
[2018-01-23 19:00:56] '003D0000025zzWXIAY'
[2018-01-23 19:01:17] '003D000001f6RGiIAM'
[2018-01-23 19:03:27] '003D00000260C9aIAE'
[2018-01-23 19:04:28] '003D000002Baba9IAB'
[2018-01-23 19:04:38] '003D000001ySiE1IAK'
[2018-01-23 19:05:10] 'b6fbd311-82ca-9abf-a048-5a1ef8c1435f'
[2018-01-23 19:06:19] '003D0000027CWqZIAW'
[2018-01-23 19:10:09] '003D000002J9W27IAF'
[2018-01-23 19:10:21] '003D0000022JpWXIA0'
[2018-01-23 19:12:04] '003D0000022JpWXIA0'
[2018-01-23 19:12:40] '003D00000260C9aIAE'
[2018-01-23 19:12:52] '003D000001qT5rQIAS'
[2018-01-23 19:14:38] '003D0000027D43SIAS'
[2018-01-23 19:15:17] '003D0000022JpWXIA0'
[2018-01-23 19:15:27] '683122b3-12a3-6d9d-b197-5a340faaad62'
[2018-01-23 19:15:40] '683122b3-12a3-6d9d-b197-5a340faaad62'
[2018-01-23 19:16:10] '683122b3-12a3-6d9d-b197-5a340faaad62'
[2018-01-23 19:17:08] '003D000001f6RGiIAM'
[2018-01-23 19:18:48] '003D000002INxFJIA1'
[2018-01-23 19:20:28] '003D0000025zYmFIAU'
[2018-01-23 19:21:23] '003D0000025zzWXIAY'
[2018-01-23 19:21:59] '003D000001SVa1HIAT'
[2018-01-23 19:23:47] '003D000000yD6y0IAC'
[2018-01-23 19:26:08] '003D00000260C9aIAE'
[2018-01-23 19:26:23] '003D00000260C9aIAE'
[2018-01-23 19:28:16] '003D000001fzeH6IAI'
[2018-01-23 19:29:38] '003D000002BcWCtIAN'
[2018-01-23 19:30:08] '003D000001ptsIcIAI'
[2018-01-23 19:31:46] '003D000000yD6y0IAC'
[2018-01-23 19:32:10] '003D000000yD6y0IAC'
[2018-01-23 19:32:17] '68449f3b-b506-b88f-07e5-5a626f252021'
[2018-01-23 19:34:33] '003D000002KJqCYIA1'
[2018-01-23 19:35:18] '003D000002KJqCYIA1'
[2018-01-23 19:35:20] '003D0000025zDZEIA2'
[2018-01-23 19:35:48] '003D00000260C9aIAE'
[2018-01-23 19:37:22] '003D000001vJU8nIAG'
[2018-01-23 19:39:12] '003D0000027DdehIAC'
[2018-01-23 19:40:23] '003D000002J9gupIAB'
[2018-01-23 19:45:17] '003D0000025ZXf8IAG'
[2018-01-23 19:45:26] 'b9656dd9-de79-a960-c55f-5a6628accb10'
[2018-01-23 19:45:35] '003D0000025zYmFIAU'
[2018-01-23 19:48:06] '003D000001tQHTnIAO'
[2018-01-23 19:48:39] '003D0000025zYmFIAU'
[2018-01-23 19:49:54] '003D0000029UxDRIA0'
[2018-01-23 19:52:08] '003D0000027C3MTIA0'
[2018-01-23 19:52:20] '003D000001vflrsIAA'
[2018-01-23 19:53:21] '003D000001tQStBIAW'
[2018-01-23 19:53:43] '003D000001vflrsIAA'
[2018-01-23 19:54:27] '003D000002J8gDDIAZ'
[2018-01-23 19:54:59] '003D0000027C3MTIA0'
[2018-01-23 19:56:40] '003D000001tQYorIAG'
[2018-01-23 19:57:56] '003D000001djQyBIAU'
[2018-01-23 19:58:19] '003D000001djQyBIAU'
[2018-01-23 19:58:35] '003D000002FHMOgIAP'
[2018-01-23 19:58:48] '003D000001Tb8YrIAJ'
[2018-01-23 19:58:48] '37dee998-5bfd-faad-41c7-5a1c5757ba75'
[2018-01-23 20:01:58] '003D0000022ufyOIAQ'
[2018-01-23 20:02:25] '003D0000022ufyOIAQ'
[2018-01-23 20:03:21] '003D000002FFNjTIAX'
[2018-01-23 20:05:36] '003D000001of2fQIAQ'
[2018-01-23 20:07:50] '003D0000029VJNLIA4'
[2018-01-23 20:08:32] '37dee998-5bfd-faad-41c7-5a1c5757ba75'
[2018-01-23 20:11:01] '003D000001Vx6hqIAB'
[2018-01-23 20:11:59] '003D0000025zYheIAE'
[2018-01-23 20:12:31] '003D000000uf0GyIAI'
[2018-01-23 20:17:21] '003D0000027C3MTIA0'
[2018-01-23 20:20:37] '003D0000027CWrIIAW'
[2018-01-23 20:23:14] '003D0000027DdehIAC'
[2018-01-23 20:24:13] '003D0000027DdehIAC'
[2018-01-23 20:26:12] '003D000001UtdRiIAJ'
[2018-01-23 20:32:12] '003D0000025zYmFIAU'
[2018-01-23 20:32:31] '003D000002J9uGVIAZ'
[2018-01-23 20:33:34] '003D000001EpvbbIAB'
[2018-01-23 20:35:17] '003D000001coCSjIAM'
[2018-01-23 20:35:44] 'a4c9005a-01a8-7ba4-1470-5a1f9b73c57b'
[2018-01-23 20:39:46] '003D000002FF5cLIAT'
[2018-01-23 20:39:59] '003D000000yD6y0IAC'
[2018-01-23 20:40:27] '003D000002J9uGVIAZ'
[2018-01-23 20:40:35] '003D000002J9uGVIAZ'
[2018-01-23 20:40:42] '003D000002J9uGVIAZ'
[2018-01-23 20:40:50] '003D000002FFUrBIAX'
[2018-01-23 20:44:26] '003D000002Be7gTIAR'
[2018-01-23 20:44:57] '003D000002Be7gTIAR'
[2018-01-23 20:45:54] 'b6fbd311-82ca-9abf-a048-5a1ef8c1435f'
[2018-01-23 20:47:04] '003D0000029VkqPIAS'
[2018-01-23 20:47:35] 'daaeaf10-62b5-4658-cb94-5a677e5ae425'
[2018-01-23 20:48:01] 'daaeaf10-62b5-4658-cb94-5a677e5ae425'
[2018-01-23 20:48:17] '003D0000025zYmFIAU'
[2018-01-23 20:51:22] '003D000002J9W27IAF'
[2018-01-23 20:51:52] '003D000002J9W27IAF'
[2018-01-23 20:54:38] '003D000001vHO5GIAW'
[2018-01-23 20:55:00] '003D000001vHO5GIAW'
[2018-01-23 20:55:23] '003D000002EDufJIAT'
[2018-01-23 20:55:46] '003D0000027BzNVIA0'
[2018-01-23 20:57:48] '003D000001igQAnIAM'
[2018-01-23 20:57:49] '003D0000027BzNVIA0'
[2018-01-23 20:58:54] '003D0000027BzNVIA0'
[2018-01-23 20:58:58] '003D000001tiGV7IAM'
[2018-01-23 21:00:59] '003D0000025YyHdIAK'
[2018-01-23 21:02:16] '003D000002DxCMIIA3'
[2018-01-23 21:03:42] 'e7722b9a-0a15-9fd4-b2f9-5a5e47b88aae'
[2018-01-23 21:04:09] 'e7722b9a-0a15-9fd4-b2f9-5a5e47b88aae'
[2018-01-23 21:04:22] '003D0000020z2LxIAI'
[2018-01-23 21:06:14] '003D0000023o8KwIAI'
[2018-01-23 21:06:59] '003D000001vJ6Y5IAK'
[2018-01-23 21:07:07] '003D000001vJ6Y5IAK'
[2018-01-23 21:07:15] '003D000001vJ6Y5IAK'
[2018-01-23 21:07:38] '003D000002J9W27IAF'
[2018-01-23 21:07:54] '003D000001hDgKDIA0'
[2018-01-23 21:08:05] '003D000001Yg2geIAB'
[2018-01-23 21:08:09] '003D0000023o8KwIAI'
[2018-01-23 21:10:14] '003D000001z5YH4IAM'
[2018-01-23 21:10:35] '003D00000211OjeIAE'
[2018-01-23 21:11:03] '003D000001EpvbbIAB'
[2018-01-23 21:11:18] '003D000001EpvbbIAB'
[2018-01-23 21:11:41] '003D000001EpvbbIAB'
[2018-01-23 21:12:00] '003D000001EpvbbIAB'
[2018-01-23 21:12:35] '003D0000027DdehIAC'
[2018-01-23 21:12:41] '003D000001y2HDmIAM'
[2018-01-23 21:13:37] '003D000002ECLuFIAX'
[2018-01-23 21:13:57] '003D000001zZy87IAC'
[2018-01-23 21:15:10] '003D000001y2HDmIAM'
[2018-01-23 21:16:27] '003D000001tQZOVIA4'
[2018-01-23 21:16:50] '886b4065-7441-b436-1165-5a307fe50698'
[2018-01-23 21:17:34] '886b4065-7441-b436-1165-5a307fe50698'
[2018-01-23 21:18:39] '003D000001vflrsIAA'
[2018-01-23 21:18:56] '003D000001y2HDmIAM'
[2018-01-23 21:19:35] '59038864-d3a9-2831-d13a-5a2074e0bb05'
[2018-01-23 21:20:48] '003D000002EDufJIAT'
[2018-01-23 21:22:54] 'b6fbd311-82ca-9abf-a048-5a1ef8c1435f'
[2018-01-23 21:24:23] '003D000002INxFJIA1'
[2018-01-23 21:26:52] '003D000001tKE5OIAW'
[2018-01-23 21:28:45] '003D0000025zXzwIAE'
[2018-01-23 21:29:00] '003D00000138nPFIAY'
[2018-01-23 21:29:05] '003D0000025zXzwIAE'
[2018-01-23 21:33:28] '003D000002J9W27IAF'
[2018-01-23 21:34:05] '003D000001UBczEIAT'
[2018-01-23 21:34:11] '003D0000025zzWXIAY'
[2018-01-23 21:37:50] '003D0000027CewuIAC'
[2018-01-23 21:38:07] 'b9656dd9-de79-a960-c55f-5a6628accb10'
[2018-01-23 21:38:13] 'c398a53f-e5c5-efa5-b23a-5a4d3e2ae352'
[2018-01-23 21:38:16] '003D000002IMu1mIAD'
[2018-01-23 21:40:24] '003D000002EDJ8JIAX'
[2018-01-23 21:42:37] 'b6fbd311-82ca-9abf-a048-5a1ef8c1435f'
[2018-01-23 21:43:13] '003D0000025zYmFIAU'
[2018-01-23 21:45:47] '003D0000027CewuIAC'
[2018-01-23 21:47:25] '003D0000027CewuIAC'
[2018-01-23 21:47:43] '003D000000uf0GyIAI'
[2018-01-23 21:47:57] '003D00000260Cn6IAE'
[2018-01-23 21:49:08] '003D0000027EWsUIAW'
[2018-01-23 21:50:01] '003D000002FGxrPIAT'
[2018-01-23 21:50:49] '003D0000025zzWXIAY'
[2018-01-23 21:50:55] 'b6fbd311-82ca-9abf-a048-5a1ef8c1435f'
[2018-01-23 21:52:30] '003D0000025zNc1IAE'
[2018-01-23 21:56:05] '003D000001ptsIcIAI'
[2018-01-23 21:57:45] '003D0000020AzR0IAK'
[2018-01-23 21:59:53] '003D000002J9sciIAB'
[2018-01-23 22:01:37] '003D000000yD6y0IAC'
[2018-01-23 22:04:22] '003D0000021fETIIA2'
[2018-01-23 22:08:00] '003D000002ECAMMIA5'
[2018-01-23 22:08:38] '62a6adb2-6b00-af9c-2bf6-5a67966b8b90'
[2018-01-23 22:08:39] '003D000002ECAMMIA5'
[2018-01-23 22:12:30] '003D0000029UHemIAG'
[2018-01-23 22:13:02] '003D0000029UHemIAG'
[2018-01-23 22:13:04] '003D000001yUNqTIAW'
[2018-01-23 22:15:24] '003D000001Yg2geIAB'
[2018-01-23 22:17:11] '003D000001Enqi9IAB'
[2018-01-23 22:18:44] '003D000002DxNu1IAF'
[2018-01-23 22:19:09] '003D000001xfD27IAE'
[2018-01-23 22:20:03] 'b6fbd311-82ca-9abf-a048-5a1ef8c1435f'
[2018-01-23 22:20:06] '003D000002IOQBhIAP'
[2018-01-23 22:20:16] '003D000002KJiLeIAL'
[2018-01-23 22:21:12] '003D000001SVa1HIAT'
[2018-01-23 22:21:26] '62a6adb2-6b00-af9c-2bf6-5a67966b8b90'
[2018-01-23 22:21:38] '003D000001yUNqTIAW'
[2018-01-23 22:22:35] '003D000002INvKNIA1'
[2018-01-23 22:22:53] '4967150a-b37a-b2ee-3bcd-5a67999be615'
[2018-01-23 22:23:13] '4967150a-b37a-b2ee-3bcd-5a67999be615'
[2018-01-23 22:26:23] '003D0000029XNurIAG'
[2018-01-23 22:27:23] '4967150a-b37a-b2ee-3bcd-5a67999be615'
[2018-01-23 22:27:30] '003D0000027DdehIAC'
[2018-01-23 22:27:45] '003D0000027EywtIAC'
[2018-01-23 22:27:51] '003D0000027EywtIAC'
[2018-01-23 22:27:53] '003D0000027DdehIAC'
[2018-01-23 22:27:58] '4967150a-b37a-b2ee-3bcd-5a67999be615'
[2018-01-23 22:28:09] '003D000002BcC0hIAF'
[2018-01-23 22:28:50] '003D0000027DwhmIAC'
[2018-01-23 22:29:01] '003D0000027DdehIAC'
[2018-01-23 22:30:31] '003D000000uf0GyIAI'
[2018-01-23 22:31:44] '5e39f109-74a3-6d92-9cde-5a1f28fcafeb'
[2018-01-23 22:31:54] '003D00000260C9aIAE'
[2018-01-23 22:32:23] '003D000002BcC0hIAF'
[2018-01-23 22:32:38] '003D000002BcC0hIAF'
[2018-01-23 22:32:40] '003D00000260C9aIAE'
[2018-01-23 22:33:14] 'eb1a5e29-bc8f-643d-7191-5a3c0f668caf'
[2018-01-23 22:33:28] '003D00000260C9aIAE'
[2018-01-23 22:33:34] 'eb1a5e29-bc8f-643d-7191-5a3c0f668caf'
[2018-01-23 22:33:39] '003D0000027DwhmIAC'
[2018-01-23 22:34:05] 'b3efd178-70f0-32e6-dff0-5a1ef98dd756'
[2018-01-23 22:36:05] '003D000001igKLrIAM'
[2018-01-23 22:36:17] '003D000001tQSUmIAO'
[2018-01-23 22:39:45] '003D000002KJigrIAD'
[2018-01-23 22:40:17] '003D000002KJigrIAD'
[2018-01-23 22:40:39] '003D000002FGyzyIAD'
[2018-01-23 22:44:14] 'eb1a5e29-bc8f-643d-7191-5a3c0f668caf'
[2018-01-23 22:45:18] '003D000000uf0GyIAI'
[2018-01-23 22:48:02] '003D000001E6425IAB'
[2018-01-23 22:49:06] '003D000002INxFJIA1'
[2018-01-23 22:54:16] '003D000002J9OqMIAV'
[2018-01-23 22:55:07] '003D000002J8uD8IAJ'
[2018-01-23 22:57:32] '003D000002FF9IYIA1'
[2018-01-23 22:59:08] '003D000001E6425IAB'
[2018-01-23 23:00:46] '003D0000027DSR7IAO'
[2018-01-23 23:01:14] '003D000002J9sciIAB'
[2018-01-23 23:02:31] '003D000001SVa1HIAT'
[2018-01-23 23:04:16] '003D000002Bb2jvIAB'
[2018-01-23 23:05:49] '25f9ee5a-5be5-2b8e-12c6-5a67a3cd1a9c'
[2018-01-23 23:07:03] '003D000002FGxrPIAT'
[2018-01-23 23:08:03] '25f9ee5a-5be5-2b8e-12c6-5a67a3cd1a9c'
[2018-01-23 23:08:48] '003D000001wo4HnIAI'
[2018-01-23 23:12:47] '003D000001lUxTGIA0'
[2018-01-23 23:15:02] '003D000001tfvrjIAA'
[2018-01-23 23:15:58] 'bac98388-05d3-fe13-d517-5a67a68eb675'
[2018-01-23 23:17:51] '003D000001z6flJIAQ'
[2018-01-23 23:18:14] '003D000001EpvbbIAB'
[2018-01-23 23:19:09] '003D000002BacMUIAZ'
[2018-01-23 23:20:54] '003D000001tQZOVIA4'
[2018-01-23 23:21:48] '003D000001UuKcYIAV'
[2018-01-23 23:22:17] 'caf3a43c-a0fa-d0d4-1bd9-5a5cc41fef83'
[2018-01-23 23:23:04] '003D000002EDuwLIAT'
[2018-01-23 23:23:18] '003D000001tQZOVIA4'
[2018-01-23 23:27:44] '003D000002EDuwLIAT'
[2018-01-23 23:28:12] '003D000001f6RGiIAM'
[2018-01-23 23:28:16] '003D000002H5luqIAB'
[2018-01-23 23:28:33] '003D0000027DdehIAC'
[2018-01-23 23:33:36] '003D000001vflrsIAA'
[2018-01-23 23:34:15] '003D0000029XqtAIAS'
[2018-01-23 23:34:40] '003D0000029UxLcIAK'
[2018-01-23 23:35:43] '003D000001FS2AeIAL'
[2018-01-23 23:38:45] '003D000000uf0GyIAI'
[2018-01-23 23:42:43] '003D0000027CSdXIAW'
[2018-01-23 23:43:37] '003D000001vIpriIAC'
[2018-01-23 23:44:17] '003D000001tRTCuIAO'
[2018-01-23 23:44:39] '003D0000027DdehIAC'
[2018-01-23 23:45:02] '003D0000027DdehIAC'
[2018-01-23 23:46:12] '003D0000020B3SpIAK'
[2018-01-23 23:48:17] '003D000002J9W27IAF'
[2018-01-23 23:49:13] '003D000002J9sciIAB'
[2018-01-23 23:53:34] '003D000002Be73MIAR'
[2018-01-23 23:55:38] '003D0000011D4PkIAK'
[2018-01-23 23:55:55] 'eaf8b35b-8984-0eea-2297-5a39634812bb'
[2018-01-23 23:56:55] '003D000001vHO5GIAW'
[2018-01-23 23:57:52] '003D000001vIpriIAC'
[2018-01-23 23:58:32] '003D000001X4ivyIAB'
[2018-01-23 23:59:02] '003D0000025zYmFIAU'
[2018-01-24 00:00:32] '003D000001X4ivyIAB'
[2018-01-24 00:03:43] '003D000001tQzDcIAK'
[2018-01-24 00:03:52] '003D000002J9HllIAF'
[2018-01-24 00:06:03] 'e22e07d0-9b75-29a9-06c8-5a208aca3e1d'
[2018-01-24 00:06:07] '003D0000022ufA9IAI'
[2018-01-24 00:07:37] 'e7722b9a-0a15-9fd4-b2f9-5a5e47b88aae'
[2018-01-24 00:09:22] '003D000002KJigrIAD'
[2018-01-24 00:09:44] '003D000002H4cQEIAZ'
[2018-01-24 00:09:59] '003D000002BeFwNIAV'
[2018-01-24 00:10:02] '003D000002Be73MIAR'
[2018-01-24 00:12:32] '003D000002Be73MIAR'
[2018-01-24 00:15:25] '59038864-d3a9-2831-d13a-5a2074e0bb05'
[2018-01-24 00:15:46] '003D000002EDuwLIAT'
[2018-01-24 00:16:32] '59038864-d3a9-2831-d13a-5a2074e0bb05'
[2018-01-24 00:17:30] '3940aaa2-4865-b988-031d-5a39a2af00f0'
[2018-01-24 00:21:00] '003D000001ieDplIAE'
[2018-01-24 00:21:05] '003D000002KKIrXIAX'
[2018-01-24 00:23:19] '003D00000210nx5IAA'
[2018-01-24 00:23:35] '003D000001xfD27IAE'
[2018-01-24 00:24:20] '003D000002FHIHVIA5'
[2018-01-24 00:25:03] '003D000002H5mMQIAZ'
[2018-01-24 00:25:07] '003D000001j3LGmIAM'
[2018-01-24 00:25:51] '003D000002EDuwLIAT'
[2018-01-24 00:26:26] 'e22e07d0-9b75-29a9-06c8-5a208aca3e1d'
[2018-01-24 00:27:40] 'e8e13402-cd09-99a0-6b4d-5a6673c60cc9'
[2018-01-24 00:28:30] '003D000002H4gLxIAJ'
[2018-01-24 00:30:07] '003D000002H5mMQIAZ'
[2018-01-24 00:31:36] '003D000002H5mMQIAZ'
[2018-01-24 00:32:42] '003D000002H4gLxIAJ'
[2018-01-24 00:34:47] '003D000001f6RGiIAM'
[2018-01-24 00:35:10] '003D000001f6RGiIAM'
[2018-01-24 00:35:40] '003D000001Y5kraIAB'
[2018-01-24 00:35:54] 'e6192aac-9071-186c-bdda-5a3c34bf94a5'
[2018-01-24 00:36:44] 'e6192aac-9071-186c-bdda-5a3c34bf94a5'
[2018-01-24 00:37:17] 'e6192aac-9071-186c-bdda-5a3c34bf94a5'
[2018-01-24 00:38:35] 'b909c4d8-2afa-595f-44d4-5a25e295cdcb'
[2018-01-24 00:39:49] '003D000001j4xDRIAY'
[2018-01-24 00:40:38] '003D000001pBa01IAC'
[2018-01-24 00:42:08] '003D000001j4xDRIAY'
[2018-01-24 00:43:13] '003D000000yD6y0IAC'
[2018-01-24 00:45:02] '003D0000020BuRjIAK'
[2018-01-24 00:45:30] '6b7d4dcd-8013-13bb-8161-5a3c37f610a8'
[2018-01-24 00:46:34] '003D000002H7d8gIAB'
[2018-01-24 00:48:42] '003D000002ECYJpIAP'
[2018-01-24 00:49:02] '003D000001Y41lmIAB'
[2018-01-24 00:49:45] '003D000001yUNqTIAW'
[2018-01-24 00:56:14] '003D000002BdQHQIA3'
[2018-01-24 00:58:58] '003D00000210nx5IAA'
[2018-01-24 00:59:21] '003D0000027EdsDIAS'
[2018-01-24 00:59:57] '003D0000025zYmFIAU'
[2018-01-24 01:01:11] '003D000001z5YglIAE'
[2018-01-24 01:03:10] '003D000002JADRVIA5'
[2018-01-24 01:03:44] '003D000002JADRVIA5'
[2018-01-24 01:03:56] '003D00000260D9CIAU'
[2018-01-24 01:04:26] '003D000002INxFJIA1'
[2018-01-24 01:04:44] '003D000002INxFJIA1'
[2018-01-24 01:05:14] '003D0000022JuoRIAS'
[2018-01-24 01:05:26] '003D0000022JuoRIAS'
[2018-01-24 01:05:51] '003D000001e6TaaIAE'
[2018-01-24 01:05:58] '003D000002IOf8rIAD'
[2018-01-24 01:06:22] '003D0000022JuoRIAS'
[2018-01-24 01:06:50] '003D000002JADRVIA5'
[2018-01-24 01:07:25] '003D00000260C9aIAE'
[2018-01-24 01:07:50] '003D000002IOf8rIAD'
[2018-01-24 01:08:15] '003D000002JADRVIA5'
[2018-01-24 01:08:29] '003D000001vJU8nIAG'
[2018-01-24 01:09:16] '003D000002JADRVIA5'
[2018-01-24 01:11:41] '003D0000029XkdzIAC'
[2018-01-24 01:15:11] '003D0000029W9peIAC'
[2018-01-24 01:15:55] '003D0000029W9peIAC'
[2018-01-24 01:16:39] '6b7d4dcd-8013-13bb-8161-5a3c37f610a8'
[2018-01-24 01:21:15] '003D000000uf0GyIAI'
[2018-01-24 01:21:18] '003D000001z5YH4IAM'
[2018-01-24 01:21:40] '003D000001z5YH4IAM'
[2018-01-24 01:23:59] '003D000002H4gLxIAJ'
[2018-01-24 01:25:00] '003D000002H4gLxIAJ'
[2018-01-24 01:27:06] '003D0000027DH8WIAW'
[2018-01-24 01:28:43] '003D000002BcRdUIAV'
[2018-01-24 01:30:00] '003D0000027DH8WIAW'
[2018-01-24 01:32:06] '003D0000022Ju8JIAS'
[2018-01-24 01:32:48] '003D000002FFO25IAH'
[2018-01-24 01:37:43] '003D0000027DdehIAC'
[2018-01-24 01:39:47] '003D000001yrQcHIAU'
[2018-01-24 01:40:36] '003D000001j2l1OIAQ'
[2018-01-24 01:41:53] '003D000002FFO25IAH'
[2018-01-24 01:46:17] '003D000000uf0GyIAI'
[2018-01-24 01:47:22] '003D0000027DdehIAC'
[2018-01-24 01:48:29] 'b909c4d8-2afa-595f-44d4-5a25e295cdcb'
[2018-01-24 01:50:42] '003D0000027DdehIAC'
[2018-01-24 01:51:50] '003D000001QyOYoIAN'
[2018-01-24 01:53:09] '003D000001GEmRjIAL'
[2018-01-24 01:54:18] '003D000002J8iS9IAJ'
[2018-01-24 01:54:18] '003D000001GEmRjIAL'
[2018-01-24 01:56:29] '003D000001ST30OIAT'
[2018-01-24 01:57:05] '003D000001GEmRjIAL'
[2018-01-24 02:00:34] 'b9656dd9-de79-a960-c55f-5a6628accb10'
[2018-01-24 02:01:04] '003D000001e6ld5IAA'
[2018-01-24 02:05:04] '003D000002H4TbNIAV'
[2018-01-24 02:09:27] 'a4c9005a-01a8-7ba4-1470-5a1f9b73c57b'
[2018-01-24 02:12:46] '003D000002IDYwWIAX'
[2018-01-24 02:13:03] '003D0000020yL8RIAU'
[2018-01-24 02:21:32] '003D000001ptsIcIAI'
[2018-01-24 02:22:44] '003D000001tQZBbIAO'
[2018-01-24 02:25:09] '003D0000022Ju8JIAS'
[2018-01-24 02:28:34] 'e389beb0-4de7-cf58-7d59-5a668162c452'
[2018-01-24 02:29:03] '003D000001SVa1HIAT'
[2018-01-24 02:29:50] '003D0000022Ju8JIAS'
[2018-01-24 02:35:13] '003D0000027DdehIAC'
[2018-01-24 02:37:56] '003D0000022Ju8JIAS'
[2018-01-24 02:38:05] '003D000002H4TbNIAV'
[2018-01-24 02:39:44] '003D0000022KfdIIAS'
[2018-01-24 02:40:29] '003D00000260OWGIA2'
[2018-01-24 02:41:24] '003D0000022KfdIIAS'
[2018-01-24 02:45:52] '003D000001SVa1HIAT'
[2018-01-24 02:47:00] '2fb211cf-ca6f-34be-59cf-5a67ce926cb0'
[2018-01-24 02:47:35] '003D000001miFSpIAM'
[2018-01-24 02:48:08] '003D000001ptsIcIAI'
[2018-01-24 02:48:52] '2fb211cf-ca6f-34be-59cf-5a67ce926cb0'
[2018-01-24 02:49:53] '003D000002H5mTOIAZ'
[2018-01-24 02:50:14] '003D000001miFSpIAM'
[2018-01-24 02:50:18] '003D0000023R0VJIA0'
[2018-01-24 02:50:31] '003D000002H5mTOIAZ'
[2018-01-24 02:50:57] '003D0000027DdehIAC'
[2018-01-24 02:51:41] '003D0000027DdehIAC'
[2018-01-24 02:53:23] '003D000002FGJ3KIAX'
[2018-01-24 02:54:13] '003D0000025zYmFIAU'
[2018-01-24 02:54:36] '003D000002FGJ3KIAX'
[2018-01-24 02:54:50] '003D000002FFO25IAH'
[2018-01-24 02:57:17] '2fb211cf-ca6f-34be-59cf-5a67ce926cb0'
[2018-01-24 02:57:43] '003D000002FFO25IAH'
[2018-01-24 02:59:46] '003D000001kDcJOIA0'
[2018-01-24 03:21:19] '003D000002FHBqDIAX'
[2018-01-24 03:41:29] '953dabf9-de88-b0c2-fb70-5a55fd11b3a7'
[2018-01-24 03:47:18] '003D000002FF65HIAT'
[2018-01-24 03:58:51] '003D000002BaqSKIAZ'
[2018-01-24 04:14:40] '003D0000027DxoJIAS'
[2018-01-24 04:30:25] '003D0000027DxoJIAS'
[2018-01-24 04:54:29] '4907fec7-1623-c7b0-d988-5a570945308a'
[2018-01-24 05:23:39] 'e07405d7-90f5-1d2c-f225-5a24cc055bad'
[2018-01-24 05:25:53] 'e07405d7-90f5-1d2c-f225-5a24cc055bad'
[2018-01-24 08:36:24] '003D0000015euYOIAY'
[2018-01-24 08:50:39] '003D000001OagTTIAZ'
[2018-01-24 08:57:48] '003D000001PlchlIAB'
[2018-01-24 09:28:12] '003D000000ud6TKIAY'
[2018-01-24 09:33:48] '2ff624c2-d216-9cc5-7c6b-5a675a70d4aa'
[2018-01-24 10:07:17] '003D0000020Bvn5IAC'
[2018-01-24 10:07:50] '003D0000020Bvn5IAC'
[2018-01-24 10:12:12] '003D000001xe5nRIAQ'
[2018-01-24 10:15:35] '003D000002BcX2TIAV'
[2018-01-24 10:23:38] '003D000001wmRcrIAE'
[2018-01-24 10:31:13] '003D000001SV1VAIA1'
[2018-01-24 10:34:55] '003D0000029W6IzIAK'
[2018-01-24 10:45:50] '003D000001vIU9TIAW'
[2018-01-24 10:45:55] '003D000001feU3FIAU'
[2018-01-24 10:46:16] '003D000001feU3FIAU'
[2018-01-24 11:10:27] '003D000001e8lOiIAI'
[2018-01-24 11:12:44] '003D000002H5KHOIA3'
[2018-01-24 11:14:12] '564edf6a-98bc-b4fd-3f4a-5a3a6a1f11e0'
[2018-01-24 11:15:44] '003D000001zXc8bIAC'
[2018-01-24 11:19:34] 'f2c5adce-a3b6-ada5-19c4-5a536b0a1ac0'
[2018-01-24 11:25:03] '003D000001e8jZRIAY'
[2018-01-24 11:35:38] '003D000001Kjzk9IAB'
[2018-01-24 11:35:51] '003D000001Kjzk9IAB'
[2018-01-24 11:36:21] '850d9446-f381-fea8-1584-5a5ca83d903b'
[2018-01-24 11:36:40] '003D000001uegDlIAI'
[2018-01-24 11:36:50] '003D000001uegDlIAI'
[2018-01-24 11:37:01] '003D000001uegDlIAI'
[2018-01-24 11:48:26] '35446942-859c-91a0-14ac-5a27fcc0bcb6'
[2018-01-24 11:50:47] '003D000001kDcJOIA0'
[2018-01-24 11:59:08] '003D000002H4jzwIAB'
[2018-01-24 12:03:44] '003D0000022rbPbIAI'
[2018-01-24 12:05:43] '003D000002KKIk4IAH'
[2018-01-24 12:08:07] '003D00000210uOFIAY'
[2018-01-24 12:09:20] '003D000001UvpGFIAZ'
[2018-01-24 12:09:42] '003D000001UvpGFIAZ'
[2018-01-24 12:10:27] '003D000002KKIk4IAH'
[2018-01-24 12:11:36] '003D000002KKIk4IAH'
[2018-01-24 12:12:33] '510821a2-a993-aae5-5899-5a685b803b9e'
[2018-01-24 12:13:42] '510821a2-a993-aae5-5899-5a685b803b9e'
[2018-01-24 12:14:19] '003D000001E4eOAIAZ'
[2018-01-24 12:14:38] '003D0000029Ue1SIAS'
[2018-01-24 12:25:27] 'b72fb935-e349-bdc5-9e4b-5a275c08f106'
[2018-01-24 12:25:36] '003D000002IOJzgIAH'
[2018-01-24 12:29:21] '003D000001udJq5IAE'
[2018-01-24 12:29:41] '003D000001fhUUaIAM'
[2018-01-24 12:30:51] '003D000002IOJzgIAH'
[2018-01-24 12:32:16] '003D000001fhUUaIAM'
[2018-01-24 12:37:51] '003D000001puMHeIAM'
[2018-01-24 12:39:04] '003D000001qcgxgIAA'
[2018-01-24 12:41:09] '003D000001eSQJgIAO'
[2018-01-24 12:44:46] '003D000001PlvFEIAZ'
[2018-01-24 12:46:43] '003D000002INCl7IAH'
[2018-01-24 12:50:46] '003D000002INCl7IAH'
[2018-01-24 12:56:32] '003D000001tQPahIAG'
[2018-01-24 12:58:36] '003D0000025YubyIAC'
[2018-01-24 12:59:21] '003D000001qcgxgIAA'
[2018-01-24 13:00:12] '003D000002J9xoXIAR'
[2018-01-24 13:02:43] '003D000001U8n2KIAR'
[2018-01-24 13:03:31] '003D0000022uGLQIA2'
[2018-01-24 13:17:25] '003D000002KJxfGIAT'
[2018-01-24 13:17:43] '003D000002ECRb0IAH'
[2018-01-24 13:18:04] '003D000002ECRb0IAH'
[2018-01-24 13:26:26] '003D000002H7TOjIAN'
[2018-01-24 13:29:59] '003D000001bjZ5XIAU'
[2018-01-24 13:30:43] '003D000002H7TOjIAN'
[2018-01-24 13:47:31] '003D000002KKeAMIA1'
[2018-01-24 13:47:48] '003D0000027CbRYIA0'
[2018-01-24 13:49:43] '003D000002KKeAMIA1'
[2018-01-24 13:51:20] '003D000001volgkIAA'
[2018-01-24 13:51:44] '003D000001volgkIAA'
[2018-01-24 13:54:58] '003D000001DNB1eIAH'
[2018-01-24 14:01:45] '003D000001m9aZoIAI'
[2018-01-24 14:04:05] '003D0000029UjS8IAK'
[2018-01-24 14:10:02] '003D000002FF70QIAT'
[2018-01-24 14:18:34] '003D000001bjQsWIAU'
[2018-01-24 14:22:34] '003D000002FF70QIAT'
[2018-01-24 14:27:04] '003D000000wsoTUIAY'
[2018-01-24 14:30:29] '003D0000027FDc6IAG'
[2018-01-24 14:30:57] '003D000001a2niSIAQ'
[2018-01-24 14:31:07] '003D000001a2niSIAQ'
[2018-01-24 14:31:47] '003D000001wNGcoIAG'
[2018-01-24 14:34:17] '003D000001wNGcoIAG'
[2018-01-24 14:42:19] '003D0000029UfMYIA0'
[2018-01-24 14:53:49] '003D0000029UfMYIA0'
[2018-01-24 14:59:09] '003D000001xzh7PIAQ'
[2018-01-24 15:07:18] '003D0000018N5OdIAK'
[2018-01-24 15:07:29] '003D0000018N5OdIAK'
[2018-01-24 15:08:57] '003D000001roCcxIAE'
[2018-01-24 15:14:31] '003D000002IOK6IIAX'
[2018-01-24 15:15:04] '003D000002IOK6IIAX'
[2018-01-24 15:22:10] '003D0000022rlGoIAI'
[2018-01-24 15:23:43] '003D0000022rlGoIAI'
[2018-01-24 15:26:48] '003D0000022KfdIIAS'
[2018-01-24 15:30:59] '003D000001bjQsWIAU'
[2018-01-24 15:30:59] '003D000001bDIVWIA4'
[2018-01-24 15:31:21] '003D000001bjQsWIAU'
[2018-01-24 15:36:24] '003D000001tfrxIIAQ'
[2018-01-24 15:41:15] '003D000001zXc8bIAC'
[2018-01-24 15:53:32] '003D000002H59YfIAJ'
[2018-01-24 15:55:41] '003D000002FGBWNIA5'
[2018-01-24 16:00:54] '003D000000yCGfEIAW'
[2018-01-24 16:00:55] '003D000001uDRrsIAG'
[2018-01-24 16:01:17] '003D000001oCQwbIAG'
[2018-01-24 16:01:23] '003D000000yCGfEIAW'
[2018-01-24 16:04:34] '003D000001pCXmUIAW'
[2018-01-24 16:05:19] '003D000002H5rtwIAB'
[2018-01-24 16:06:52] '003D000001YgIPpIAN'
[2018-01-24 16:06:59] '003D000002H7c8XIAR'
[2018-01-24 16:07:03] '003D000001YgIPpIAN'
[2018-01-24 16:10:38] '003D0000027FDc6IAG'
[2018-01-24 16:10:46] '003D000002BeThoIAF'
[2018-01-24 16:11:51] '003D000002BeUKcIAN'
[2018-01-24 16:12:33] '003D000001idYG9IAM'
[2018-01-24 16:22:39] '566b2eca-b607-59d1-84c8-5a6896823c6b'
[2018-01-24 16:23:31] '003D000001tKCQLIA4'
[2018-01-24 16:23:36] '003D0000025zzKRIAY'
[2018-01-24 16:26:09] '003D0000029VyGyIAK'
[2018-01-24 16:29:10] '003D000001uFz34IAC'
[2018-01-24 16:30:40] '003D000001uFz34IAC'
[2018-01-24 16:31:15] '003D000000yCGfEIAW'
[2018-01-24 16:32:48] '003D0000023S8svIAC'
[2018-01-24 16:35:46] '003D000002601AlIAI'
[2018-01-24 16:37:57] '003D0000029ULrtIAG'
[2018-01-24 16:41:21] '20ce33ab-7d43-da39-4cc9-5a57a946078a'
[2018-01-24 16:42:25] '003D000002KJu24IAD'
[2018-01-24 16:44:13] '003D0000029W9peIAC'
[2018-01-24 16:45:05] '003D000001a1iCcIAI'
[2018-01-24 16:45:29] '003D000001QHSYUIA5'
[2018-01-24 16:51:54] '003D000001y0jjjIAA'
[2018-01-24 16:54:45] '003D000002H4nBbIAJ'
[2018-01-24 16:55:25] '003D000002ECSKTIA5'
[2018-01-24 16:56:07] 'a395ab43-de83-f112-0035-5a5fb9afffd5'
[2018-01-24 16:57:28] '003D0000017Pox8IAC'
[2018-01-24 16:59:54] '003D0000016gmU8IAI'
[2018-01-24 17:00:33] '003D0000022Jp3BIAS'
[2018-01-24 17:01:10] '003D0000016gmU8IAI'
[2018-01-24 17:02:39] '003D000002BaLAgIAN'
[2018-01-24 17:06:23] '003D000002H5QStIAN'
[2018-01-24 17:06:38] '003D000002KKDrHIAX'
[2018-01-24 17:07:11] '003D000002H5QStIAN'
[2018-01-24 17:08:10] '003D000002KKeAMIA1'
[2018-01-24 17:08:39] '003D000001UwrdLIAR'
[2018-01-24 17:09:10] '003D000001biXicIAE'
[2018-01-24 17:10:01] '003D0000017Pox8IAC'
[2018-01-24 17:10:22] '003D000002FHl30IAD'
[2018-01-24 17:10:31] 'b909c4d8-2afa-595f-44d4-5a25e295cdcb'
[2018-01-24 17:10:57] '003D000001f9UR7IAM'
[2018-01-24 17:11:03] '003D000002KKeAMIA1'
[2018-01-24 17:11:46] '003D000002BaLAgIAN'
[2018-01-24 17:12:21] '003D000002H5rtwIAB'
[2018-01-24 17:12:52] '003D000002H5rtwIAB'
[2018-01-24 17:14:43] 'b9656dd9-de79-a960-c55f-5a6628accb10'
