<?xml version="1.0" encoding="UTF-8" standalone="no"?>
<svg
   xmlns:dc="http://purl.org/dc/elements/1.1/"
   xmlns:cc="http://creativecommons.org/ns#"
   xmlns:rdf="http://www.w3.org/1999/02/22-rdf-syntax-ns#"
   xmlns:svg="http://www.w3.org/2000/svg"
   xmlns="http://www.w3.org/2000/svg"
   xmlns:sodipodi="http://sodipodi.sourceforge.net/DTD/sodipodi-0.dtd"
   xmlns:inkscape="http://www.inkscape.org/namespaces/inkscape"
   width="20"
   height="20"
   viewBox="0 0 20 20"
   version="1.1"
   id="svg2"
   inkscape:version="0.48.4 r9939"
   sodipodi:docname="Meetings.svg"
   inkscape:export-filename="/var/www/html/sdk/instances/suitecrm-development-mysql/themes/SolarEdgeP/images/actions/Meetings.png"
   inkscape:export-xdpi="90"
   inkscape:export-ydpi="90">
  <metadata
     id="metadata24">
    <rdf:RDF>
      <cc:Work
         rdf:about="">
        <dc:format>image/svg+xml</dc:format>
        <dc:type
           rdf:resource="http://purl.org/dc/dcmitype/StillImage" />
        <dc:title>sb_schedule_meeting</dc:title>
      </cc:Work>
    </rdf:RDF>
  </metadata>
  <sodipodi:namedview
     pagecolor="#ffffff"
     bordercolor="#666666"
     borderopacity="1"
     objecttolerance="10"
     gridtolerance="10"
     guidetolerance="10"
     inkscape:pageopacity="0"
     inkscape:pageshadow="2"
     inkscape:window-width="1855"
     inkscape:window-height="1056"
     id="namedview22"
     showgrid="false"
     inkscape:zoom="11.9198"
     inkscape:cx="5.921284"
     inkscape:cy="3.1130071"
     inkscape:window-x="65"
     inkscape:window-y="24"
     inkscape:window-maximized="1"
     inkscape:current-layer="sb_schedule_meeting" />
  <!-- Generator: Sketch 3.8.3 (29802) - http://www.bohemiancoding.com/sketch -->
  <title
     id="title4">sb_schedule_meeting</title>
  <desc
     id="desc6">Created with Sketch.</desc>
  <defs
     id="defs8" />
  <g
     id="Page-1"
     style="fill:none;stroke:none"
     transform="translate(0,-92)">
    <g
       id="sb_schedule_meeting">
      <path
         d="m 16.880201,108.77166 0.505625,0 0,-13.146235 -1.01125,0 0,4.044991 -4.044995,0 0,-4.044991 -4.0449931,0 0,4.044991 -4.0449952,0 0,9.101244 12.6406083,0 z M 3.2283439,95.625425 l 1.0112488,0 0,13.146235 -1.0112488,0 0,-13.146235 z m 2.0224975,-1.01125 2.0224975,0 0,4.044985 -2.0224975,0 0,-4.044985 z m 8.0899896,0 2.022498,0 0,4.044985 -2.022498,0 0,-4.044985 z"
         id="Combined-Shape"
         inkscape:connector-curvature="0"
         style="fill:#f5f5f5" />
    </g>
  </g>
</svg>
